{
  "sources": [
    {
      "name": "CoinDesk RSS",
      "category": "rss-news (publisher)",
      "endpoint": "https://www.coindesk.com/arc/outboundfeeds/rss/",
      "method": "GET",
      "auth": "none",
      "verified": true,
      "rate_limit": "None observed/documented; poll every 1-5 min is safe",
      "sample_response_snippet": "<?xml version=\"1.0\" encoding=\"UTF-8\"?> <rss xmlns:content=\"http://purl.org/rss/1.0/modules/content/\" ... <item><title><![CDATA[Crypto tax bills a work-in-progress as U.S. House lawmakers pose concerns]]></title><link>https://www.coindesk.com/policy/2026/06/09/crypto-tax-bills...</link><pubDate>Tue, 09 Jun 2026 21:06:01 +0000</pubDate>",
      "notes": "200 with browser UA. 25 items, latest <1 day old (Tue 09 Jun 21:06 UTC at fetch on Jun 10). HEADLINE+SUMMARY ONLY: description avg 138 chars, no usable content:encoded body. Article URLs are clean and server-rendered; fetch the <link> for full text. Includes media:content image.",
      "value_for_decisions": "Highest-credibility breaking news (regulation, ETF, institutional flows, hacks). Sonnet should extract: catalyst type (regulation/ETF/hack/macro/partnership), coins named in title+description, direction (bullish/bearish framing), recency from pubDate. Magnitude usually low-medium per article; weight by section in URL path (/policy/, /markets/)."
    },
    {
      "name": "CoinTelegraph RSS",
      "category": "rss-news (publisher)",
      "endpoint": "https://cointelegraph.com/rss",
      "method": "GET",
      "auth": "none",
      "verified": true,
      "rate_limit": "None observed; standard politeness (>=1 min poll)",
      "sample_response_snippet": "<item><title>ETH crash to $1K looms if key support breaks: Will futures traders step in?</title><pubDate>Tue, 09 Jun 2026 21:21:47 +0000</pubDate><guid isPermaLink=\"true\">https://cointelegraph.com/markets/ether-risks-revisit-of-1000-if-this-support-level-breaks-amid-leverage-reset-data</guid><description><![CDATA[<p ...><img src=...",
      "notes": "200, application/xml. 30 items, latest <1 day old. Headline + ~144-char text summary (description is HTML with an inline image; strip tags). The clean canonical URL is in <guid>, the <link> carries utm params. High volume, includes price-analysis pieces (useful direction language: 'crash', 'rally', support levels).",
      "value_for_decisions": "Highest-volume general feed; good for per-coin sentiment sweeps. Extract: ticker from title, direction words (crash/rally/surge/dump), price levels mentioned, catalyst type, pubDate recency. Discount sponsored/'partner' items (utm_campaign=rss_partner_inbound in link)."
    },
    {
      "name": "The Block RSS",
      "category": "rss-news (publisher)",
      "endpoint": "https://www.theblock.co/rss.xml",
      "method": "GET",
      "auth": "none",
      "verified": true,
      "rate_limit": "None observed; poll >=2 min",
      "sample_response_snippet": "<?xml version=\"1.0\" encoding=\"UTF-8\"?><rss version=\"2.0\" xmlns:content=\"http://purl.org/rss/1.0/modules/content/\" xmlns:wfw=\"http://wellformedweb.org/CommentAPI/\" xmlns:dc=\"http://purl.org/dc/elements/1.1/\" xmlns:atom=\"http://www.w3.org/2005/Atom\" xmlns:sy=\"http://purl.org/rss/1.0/modules/syndicatio",
      "notes": "200, text/xml. 18 items, latest <1 day old (Tue 09 Jun 20:31 -0400). content:encoded exists but is only a ~150-char summary, NOT full text. Site articles are sometimes paywalled ('The Block Pro'), so the RSS summary may be all you get for some items.",
      "value_for_decisions": "Institutional/funding/exchange news with fast turnaround. Extract: catalyst type (funding round, exchange incident, listing, regulatory), entities/coins from title, recency. Treat as high-credibility confirmation source rather than full-text reading."
    },
    {
      "name": "Decrypt RSS",
      "category": "rss-news (publisher)",
      "endpoint": "https://decrypt.co/feed",
      "method": "GET",
      "auth": "none",
      "verified": true,
      "rate_limit": "None observed; poll >=1 min",
      "sample_response_snippet": "<item><title>Crypto Tax Bills Face Pushback in House Committee Hearing</title><link>https://decrypt.co/370599/crypto-tax-bills-pushback-house-committee</link><pubDate>Tue, 09 Jun 2026 21:44:38 +0000</pubDate><description>Pro-crypto Democrats questioned staking and mining tax exemptions Tuesday...</description><dc:creator>Sander Lutz</dc:creator>",
      "notes": "200. 33 items, latest <1 day old (freshest of the six at fetch time). Headline + plain-text 1-2 sentence description (avg 130 chars), clean direct article URLs (server-rendered, easy to fetch full text with a browser UA).",
      "value_for_decisions": "Fast general coverage incl. memecoins/NFT/gaming tokens others skip. Extract: coins, catalyst type, one-sentence summary is usually information-dense enough to classify direction without fetching the article."
    },
    {
      "name": "Bitcoin Magazine RSS (FULL TEXT)",
      "category": "rss-news (publisher, full-text)",
      "endpoint": "https://bitcoinmagazine.com/feed",
      "method": "GET",
      "auth": "none",
      "verified": true,
      "rate_limit": "None observed; WordPress feed, poll >=5 min (only 10 items, slower cadence)",
      "sample_response_snippet": "<?xml version=\"1.0\" encoding=\"UTF-8\"?><rss version=\"2.0\" xmlns:content=\"http://purl.org/rss/1.0/modules/content/\" xmlns:wfw=\"http://wellformedweb.org/CommentAPI/\" xmlns:dc=\"http://purl.org/dc/elements/1.1/\" xmlns:atom=\"http://www.w3.org/2005/Atom\" xmlns:sy=\"http://purl.org/rss/1.0/modules/sy",
      "notes": "200. 10 items, latest <1 day old. The ONLY feed of the six with full article text in-feed: content:encoded averages ~3,800 chars of body text (max 5,655), plus ~1,000-char description. BTC-centric editorial slant (bullish bias).",
      "value_for_decisions": "Full text in-feed means sonnet can read the entire article with zero extra fetches. Best for BTC-specific catalysts (mining, treasury companies, policy). Extract: catalyst, magnitude cues from body (dollar amounts, dates), but correct for the publication's structural BTC-bullish bias."
    },
    {
      "name": "The Defiant RSS",
      "category": "rss-news (publisher, DeFi)",
      "endpoint": "https://thedefiant.io/api/feed",
      "method": "GET",
      "auth": "none",
      "verified": true,
      "rate_limit": "None observed; poll >=5 min",
      "sample_response_snippet": "<?xml version=\"1.0\" encoding=\"UTF-8\"?>   <rss version=\"2.0\" xmlns:content=\"http://purl.org/rss/1.0/modules/content/\" xmlns:wfw=\"http://wellformedweb.org/CommentAPI/\" xmlns:dc=\"http://purl.org/dc/elements/1.1/\" xmlns:atom=\"http://www.w3.org/2005/Atom\" xmlns:sy=\"http://purl.org/rss/1.0/modules/syndication/\" xmlns:slash=",
      "notes": "200, application/rss+xml. NOTE the URL is /api/feed (not /feed). 100 items (deepest archive of the six), latest <1 day old. content:encoded is a ~330-char extended summary, not full text.",
      "value_for_decisions": "Best DeFi/alt-L1 coverage: protocol exploits, governance, TVL shifts, airdrops \u2014 catalysts that move mid-cap perps tradable on Hyperliquid. Extract: protocol/token name, catalyst type (exploit=strong bearish, airdrop/upgrade=bullish), the 330-char summary usually contains the key number (amount hacked, TVL change)."
    },
    {
      "name": "Google News RSS search (per-coin queries)",
      "category": "query-rss (aggregator)",
      "endpoint": "https://news.google.com/rss/search?q={QUERY}+when:1d&hl=en-US&gl=US&ceid=US:en",
      "method": "GET",
      "auth": "none",
      "verified": true,
      "rate_limit": "Unofficial/undocumented; keep to ~1 req/2-3 s per IP and cache per query, or risk 429/captcha",
      "sample_response_snippet": "<title>Large cryptocurrencies drop on Solana, Bitcoin declines - MarketWatch</title><link>https://news.google.com/rss/articles/CBMitAFBVV95cUxQZjhpc2dyVXJkZlJYRjl6SklVc21xajZ6VVFoazFha1UtREw1eVduX2hVRlhGaklQNTNDdjdudWRTb0kwLVVqakZDZ1RJSXpIdUFOV1JRaFVFZXRaOHJSUXVZUUZnNWR3Ul9yX2lWTWF6cHF4VjhhTm9sa1N4RkFSdnVuUENvRkRjR2ZlbURPdmc1OWR1Wk1pVm1IRGtxQlRwSmt6SVkzSmd6YlY4dEJZRGpLdUg?oc=5</link>",
      "notes": "Verified with q='solana crypto when:1d': 200, 100 items, items from the last 24h. Operators that work: when:1d / when:7d, quoted phrases, site:. CAVEAT: <link> is a Google-encoded redirect (rss/articles/CBMi...), not the real URL, and since 2024 it does NOT resolve with a simple HTTP redirect \u2014 use the title + <source> domain for attribution, or a decoder lib (e.g. googlenewsdecoder, which uses Google's batchexecute endpoint, also keyless). Title format is 'Headline - Publisher'.",
      "value_for_decisions": "The per-coin recall sweep: one query per held/candidate symbol. Extract: event clustering (many publishers on same story within hours = real catalyst, magnitude proxy), publisher credibility from <source>, direction from headline language, recency from pubDate. Headlines only \u2014 treat as a detector, then read the story via the publisher's own feed/site."
    },
    {
      "name": "CryptoPanic API v2 (developer tier)",
      "category": "aggregator-api",
      "endpoint": "https://cryptopanic.com/api/developer/v2/posts/?auth_token={KEY}&currencies=BTC,ETH&filter=hot&public=true",
      "method": "GET",
      "auth": "free-key",
      "verified": false,
      "rate_limit": "Plan-based: per-second limit + monthly cap (403/429 on breach); free developer tier quota shown after signup at cryptopanic.com/developers/api/keys",
      "sample_response_snippet": "(keyless probe of https://cryptopanic.com/api/developer/v2/posts/ returned HTTP 404 with an HTML shell: '<!DOCTYPE html><html lang=\"en\"><head><meta http-equiv=\"X-UA-Compatible\" content=\"IE=edge\">...' \u2014 endpoint requires auth_token; could not verify 200 shape without a key)",
      "notes": "Base URL pattern is https://cryptopanic.com/api/{PLAN}/v2/ (plan=developer for the free tier). Keyless returns 404, so verified=false. Their web 'RSS' (cryptopanic.com/news/rss/) returned an HTML Vue app, NOT a feed \u2014 do not use. Docs pages are JS-rendered/Cloudflare-fronted (curl gets a 13KB shell). Free key signup is instant.",
      "value_for_decisions": "Only worth it as a fallback: pre-tagged coins (currencies field), community votes (positive/negative/important) as a crowd-sourced direction+magnitude proxy, and filter=hot for what is moving now. Extract: currencies array, vote ratios, panic_score if present, source domain."
    },
    {
      "name": "Binance CMS announcements JSON (new listings, catalogId=48)",
      "category": "exchange-announcements / listing-detection",
      "endpoint": "https://www.binance.com/bapi/apex/v1/public/apex/cms/article/list/query?type=1&pageNo=1&pageSize=10&catalogId=48",
      "method": "GET",
      "auth": "none",
      "verified": true,
      "rate_limit": "Unofficial bapi endpoint, no documented limit; aggressive polling trips Binance WAF/captcha \u2014 poll ~1/min with a browser UA",
      "sample_response_snippet": "{\"code\":\"000000\",\"message\":null,\"messageDetail\":null,\"data\":{\"catalogs\":[{\"catalogId\":48,\"parentCatalogId\":null,\"icon\":\"https://public.bnbstatic.com/image/cms/content/body/202505/d3201bf0be35bb246b65a767221410e0.png\",\"catalogName\":\"New Cryptocurrency Listing\",\"description\":null,\"catalogType\":1,\"total\":2172,\"articles\":[{\"id\":276476,\"code\":\"f598c7bb87d74b8c995b9f67bf210be1\",\"title\":\"Binance Futures",
      "notes": "YES, still works keyless from this US machine (200, browser UA). Freshest article releaseDate 2026-06-09T06:15 UTC ('Binance Futures Will Launch Multiple USD(S)-Margined TradFi Perpetual Contracts'). The legacy composite variant ALSO still works: /bapi/composite/v1/public/cms/article/catalog/list/query?catalogId=48&pageNo=1&pageSize=5 (200, same articles). The article-detail endpoint (/apex/cms/article/detail/query?articleCode=...) returns 200 but data:null \u2014 full body is NOT retrievable via API; titles are information-complete for listings anyway. Other catalogIds: 49=delistings, 161=futures/derivatives.",
      "value_for_decisions": "THE highest-alpha source here: Binance futures/spot listing titles name the exact ticker and effective date. Extract with a regex pass before any LLM: /([A-Z0-9]{2,10})USDT (Perpetual|Contract)/ or 'Will List X (TICKER)'. Catalyst=listing (bullish for the listed coin, minutes-level urgency via releaseDate epoch ms); delisting catalog = strong bearish. Diff article ids between polls."
    },
    {
      "name": "Bybit v5 announcements API (new_crypto)",
      "category": "exchange-announcements / listing-detection",
      "endpoint": "https://api.bybit.com/v5/announcements/index?locale=en-US&type=new_crypto&page=1&limit=10",
      "method": "GET",
      "auth": "none",
      "verified": true,
      "rate_limit": "No rate headers returned; Bybit docs: public endpoints IP-limited (~600 req/5s shared) \u2014 poll 1/min is trivial",
      "sample_response_snippet": "{\"retCode\":0,\"retMsg\":\"OK\",\"result\":{\"total\":1518,\"list\":[{\"title\":\"New listing: AAOIUSDT Perpetual Contract, with up to 10x leverage\",\"description\":\"Bybit has listed the AAOIUSDT Perpetual Contract. Trading is now open with up to 10x leverage.\",\"type\":{\"title\":\"New Listings\",\"key\":\"new_crypto\"},\"tags\":[\"Derivatives\"],\"url\":\"https://announcements.bybit.com/en-US/article/new-listing-aaoiusdt-perpet",
      "notes": "Official, documented, keyless, clean JSON with title+description+tags+dateTimestamp. type values: new_crypto, delistings, latest_activities, etc. Easiest exchange feed to parse \u2014 description is a complete sentence with ticker and leverage.",
      "value_for_decisions": "Listing catalyst with structured fields: parse ticker from title ('New listing: XUSDT Perpetual'), tags=['Derivatives'] distinguishes perp vs spot, dateTimestamp for recency. Bybit listings often precede/echo Binance ones \u2014 cross-exchange listing momentum signal."
    },
    {
      "name": "OKX support announcements API (new listings)",
      "category": "exchange-announcements / listing-detection",
      "endpoint": "https://www.okx.com/api/v5/support/announcements?annType=announcements-new-listings&page=1",
      "method": "GET",
      "auth": "none",
      "verified": true,
      "rate_limit": "No headers observed; OKX docs list 5 req/2s for this endpoint",
      "sample_response_snippet": "{\"code\":\"0\",\"msg\":\"\",\"data\":[{\"details\":[{\"annType\":\"announcements-new-listings\",\"title\":\"OKX will launch PROS/USD and PROS/EUR for spot trading\",\"url\":\"https://www.okx.com/en-eu/help/okx-will-launch-pros-usd-and-pros-eur-for-spot-trading\",\"pTime\":\"1778644810930\",\"businessPTime\":\"1778644800000\"},{\"annType\":\"announcements-new-listings\",\"title\":\"OKX to list KAT and OKB on spot in EEA\",\"url\":\"https:/",
      "notes": "Official, documented, keyless. annType filters: announcements-new-listings, announcements-delistings, etc. pTime/businessPTime are epoch ms (businessPTime = when the listing takes effect \u2014 useful for pre-positioning).",
      "value_for_decisions": "Third confirmation leg for listing momentum. Extract ticker(s) from title, spot vs perp from title wording, and businessPTime as the exact go-live timestamp (catalyst with a known future time = schedulable trade)."
    },
    {
      "name": "Upbit announcements API (trade/listing category)",
      "category": "exchange-announcements / listing-detection",
      "endpoint": "https://api-manager.upbit.com/api/v1/announcements?os=web&page=1&per_page=20&category=trade",
      "method": "GET",
      "auth": "none",
      "verified": true,
      "rate_limit": "No headers observed; unofficial-but-stable web API, poll <=1/30s with browser UA",
      "sample_response_snippet": "{\"success\":true,\"data\":{\"total_pages\":142,\"total_count\":706,\"notices\":[{\"listed_at\":\"2026-06-09T11:30:02+09:00\",\"first_listed_at\":\"2026-06-09T11:30:02+09:00\",\"id\":6282,\"title\":\"\uc2dc\ud2b8\ub808\uc544(CTR) \uc2e0\uaddc \uac70\ub798\uc9c0\uc6d0 \uc548\ub0b4 (BTC, USDT \ub9c8\ucf13)\",\"category\":\"\uac70\ub798\",\"need_new_badge\":true,...",
      "notes": "200 keyless from US IP. Titles are Korean but the TICKER IS ALWAYS IN LATIN PARENS \u2014 e.g. '(CTR)' \u2014 so a regex \\(([A-Z0-9]{2,8})\\) extracts the coin with no translation needed. Latest notice was a brand-new listing <1 day old at fetch time. The 'Upbit pump' (KRW retail flow) is one of the most reliable listing-pop phenomena in crypto.",
      "value_for_decisions": "Highest single-event magnitude of all listing sources: Upbit KRW listings historically pop the coin double digits in minutes. Extract: ticker from parens, market (BTC/USDT/KRW in title), listed_at recency. If the coin has a Hyperliquid perp, an Upbit listing notice seconds old is an immediate long candidate; staleness >30 min means the move already happened."
    },
    {
      "name": "Hyperliquid perp universe (listing/delisting detector)",
      "category": "exchange-announcements / listing-detection",
      "endpoint": "https://api.hyperliquid.xyz/info",
      "method": "POST",
      "request_body": "{\"type\":\"meta\"}",
      "auth": "none",
      "verified": true,
      "rate_limit": "Documented: 1200 request-weight/min per IP on /info (meta is cheap); polling 1/min uses a fraction",
      "sample_response_snippet": "{\"universe\":[{\"szDecimals\":5,\"name\":\"BTC\",\"maxLeverage\":40,\"marginTableId\":56},{\"szDecimals\":4,\"name\":\"ETH\",\"maxLeverage\":25,\"marginTableId\":55},{\"szDecimals\":2,\"name\":\"ATOM\",\"maxLeverage\":5,\"marginTableId\":5},{\"szDecimals\":1,\"name\":\"MATIC\",\"maxLeverage\":20,\"marginTableId\":20,\"isDelisted\":true},...",
      "notes": "Hyperliquid has NO machine-readable announcement feed: listings are announced on X (@HyperliquidX) and Discord only; the GitBook docs (hyperliquid.gitbook.io/hyperliquid-docs, verified 200) are HTML with no RSS, and free X/nitter mirrors are dead/unreliable. The deterministic substitute: diff the 'universe' array between polls \u2014 a new 'name' = new perp listed; 'isDelisted':true appearing = delist. Same call works on the testnet host the project already uses.",
      "value_for_decisions": "Ground truth for what is tradable in this project's paper-trading layer. New universe entry = listing catalyst on HL itself (early listings often pump on HL-native flow); maxLeverage tells the engine its sizing cap immediately; isDelisted = forced-exit signal for any open paper position. No LLM needed \u2014 pure set-diff, then sonnet only interprets cross-source context."
    },
    {
      "name": "CoinMarketCal events API",
      "category": "events-calendar (upcoming catalysts)",
      "endpoint": "https://developers.coinmarketcal.com/v1/events?max=20&coins={slug}&sortBy=hot_events",
      "method": "GET",
      "auth": "free-key",
      "verified": false,
      "rate_limit": "Free plan: limited monthly call quota and events restricted to ~7 days ahead (exact quota shown after signup); paid from ~$49.80/mo for unlimited",
      "sample_response_snippet": "(keyless probe returned HTTP 403: '{\"status\": {\"error_message\":\"Forbidden\",\"error_code\": 403}}' \u2014 endpoint live and JSON-shaped but requires x-api-key header; could not verify 200 body without a key)",
      "notes": "Auth is an x-api-key header from coinmarketcal.com/en/api (the signup page itself is Cloudflare-403 to curl; use a real browser to register). Marked verified=false per the rules. Events are community-submitted and voted, with proof links.",
      "value_for_decisions": "The only forward-looking source in this list: scheduled catalysts (mainnet launches, token unlocks, burns, conference talks) days before they hit news feeds. Extract: coins[] (native field), date_event, categories, vote/confidence percentage as magnitude prior. Token unlocks = bearish; mainnet/burn = bullish. Use the 7-day free window as a pre-positioning calendar; skip if key friction is too high \u2014 Google News 'when:7d' per coin is a weaker free substitute."
    }
  ],
  "summary": "All endpoints were fetched live from this machine on 2026-06-10 (curl.exe, browser UA, no auth keys). 12 of 14 verified with real 200s and expected shapes; the 2 unverified (CryptoPanic, CoinMarketCal) require free keys and returned the expected auth-rejection responses keyless. KEY FINDINGS: (1) All six publisher RSS feeds work today and are fresh (<24h items): CoinDesk /arc/outboundfeeds/rss/, CoinTelegraph /rss, The Block /rss.xml, Decrypt /feed, Bitcoin Magazine /feed, The Defiant /api/feed (note the /api/ prefix). Full-text reality: ONLY Bitcoin Magazine ships full article bodies in-feed (~3.8k chars avg); The Defiant gives ~330-char extended summaries; the rest are headline + 130-180-char blurbs, so full reading requires fetching the article URL (easy for Decrypt/CoinDesk/CoinTelegraph, sometimes paywalled on The Block). (2) Google News RSS search works (100 items/query, when:1d operator) but links are Google-encoded redirects that no longer resolve via plain HTTP \u2014 use title + <source> publisher for triage, or a batchexecute-based decoder. (3) Binance CMS announcement JSON still works KEYLESS from a US IP on BOTH the apex and legacy composite paths; catalogId=48 = new listings (freshest item <24h, a futures-listing notice); the article-detail endpoint returns data:null so titles are all you get (sufficient for listings). (4) Bybit v5 and OKX v5 announcement APIs are official, documented, keyless, and the cleanest to parse; Upbit's JSON works from a US IP with tickers extractable from Latin parens in Korean titles \u2014 the single highest-magnitude listing signal. (5) Hyperliquid has no feed at all (X/Discord only; GitBook is HTML) \u2014 the reliable machine path is diffing POST /info {\"type\":\"meta\"} universe between polls for listings/delists, which doubles as ground truth for the project's paper-trading layer. (6) Recommended free stack for a sonnet-grade agent: regex-first listing detectors (Binance/Bybit/OKX/Upbit/HL-diff, no LLM needed for extraction), RSS headlines for catalyst classification (type, coins, direction, recency), Google News per-coin sweeps for event-cluster magnitude, with CryptoPanic/CoinMarketCal as optional free-key fallbacks for pre-tagged sentiment and forward calendars. No rate-limit headers were observed anywhere; documented/safe polling: OKX 5 req/2s, Hyperliquid 1200 weight/min, everything else politeness-limited (~1/min is safe across the board)."
}